[
  {
    "level": "INFO",
    "message": "android.ndkVersion from module build.gradle is [21.4.7075529]"
  },
  {
    "level": "INFO",
    "message": "android.ndkPath from module build.gradle is /Users/samuellucio/Library/Android/sdk/ndk/21.4.7075529"
  },
  {
    "level": "INFO",
    "message": "ndk.dir in local.properties is not set"
  },
  {
    "level": "INFO",
    "message": "Not considering ANDROID_NDK_HOME because support was removed after deprecation period."
  },
  {
    "level": "INFO",
    "message": "sdkFolder is /Users/samuellucio/Library/Android/sdk"
  }
]