{
  "ndk": "/Users/samuellucio/Library/Android/sdk/ndk/21.4.7075529",
  "revision": {
    "mMajor": 21,
    "mMinor": 4,
    "mMicro": 7075529,
    "mPreview": 0,
    "mPrecision": "MICRO",
    "mPreviewSeparator": " "
  }
}